{
  "id": "",
  "name": "",
  "font_family": "iconfont",
  "css_prefix_text": "icon-",
  "description": "",
  "glyphs": [
    {
      "icon_id": "1418222",
      "name": "日历",
      "font_class": "rili",
      "unicode": "e60a",
      "unicode_decimal": 58890
    },
    {
      "icon_id": "9842068",
      "name": "icon_huiyuanjulebu",
      "font_class": "icon_huiyuanjulebu",
      "unicode": "e6ce",
      "unicode_decimal": 59086
    },
    {
      "icon_id": "20171389",
      "name": "搜索",
      "font_class": "sousuo",
      "unicode": "e60e",
      "unicode_decimal": 58894
    }
  ]
}
