{
  "id": "",
  "name": "",
  "font_family": "iconfont",
  "css_prefix_text": "icon-",
  "description": "",
  "glyphs": [
    {
      "icon_id": "77156",
      "name": "微信",
      "font_class": "weixin",
      "unicode": "f0106",
      "unicode_decimal": 983302
    },
    {
      "icon_id": "577402",
      "name": "向右1",
      "font_class": "xiangyou1",
      "unicode": "e775",
      "unicode_decimal": 59253
    },
    {
      "icon_id": "577406",
      "name": "向左1",
      "font_class": "xiangzuo1",
      "unicode": "e779",
      "unicode_decimal": 59257
    },
    {
      "icon_id": "1115081",
      "name": "微博",
      "font_class": "weibo",
      "unicode": "e63e",
      "unicode_decimal": 58942
    },
    {
      "icon_id": "1330565",
      "name": "会员俱乐部",
      "font_class": "huiyuanjulebu",
      "unicode": "e73a",
      "unicode_decimal": 59194
    },
    {
      "icon_id": "3456452",
      "name": "购物车",
      "font_class": "gouwuche",
      "unicode": "e70b",
      "unicode_decimal": 59147
    },
    {
      "icon_id": "4425834",
      "name": "右箭头",
      "font_class": "youjiantou",
      "unicode": "e79c",
      "unicode_decimal": 59292
    },
    {
      "icon_id": "7009042",
      "name": "search",
      "font_class": "search",
      "unicode": "e741",
      "unicode_decimal": 59201
    },
    {
      "icon_id": "7009048",
      "name": "packup",
      "font_class": "packup",
      "unicode": "e749",
      "unicode_decimal": 59209
    },
    {
      "icon_id": "7173587",
      "name": "电话",
      "font_class": "dianhua",
      "unicode": "e614",
      "unicode_decimal": 58900
    },
    {
      "icon_id": "12011691",
      "name": "arrow-down",
      "font_class": "arrow-down",
      "unicode": "e7b2",
      "unicode_decimal": 59314
    },
    {
      "icon_id": "22624155",
      "name": "日历",
      "font_class": "icon_rili",
      "unicode": "e557",
      "unicode_decimal": 58711
    }
  ]
}
